…
    ## # A tibble: 1 × 3
    ##   estimate conf.low conf.high
    ##      <dbl>    <dbl>     <dbl>
    ## 1    0.646    0.628     0.663

``` r
conf_int =
  map2_df(.x = homi_df$unsolved, .y = homi_df$n_obs, .f =  ~broom::tidy(prop.test(.x,.y))) %>%
  mutate(city_state = homi_df$city_state) %>%
  select(city_state, estimate, conf.low,conf.high)

conf_int
```

    ## # A tibble: 51 × 4
    ##    city_state     estimate conf.low conf.high
    ##    <chr>             <dbl>    <dbl>     <dbl>
    ##  1 Albuquerque,NM    0.386    0.337     0.438
    ##  2 Atlanta,GA        0.383    0.353     0.415
    ##  3 Baltimore,MD      0.646    0.628     0.663
    ##  4 Baton Rouge,LA    0.462    0.414     0.511
    ##  5 Birmingham,AL     0.434    0.399     0.469
    ##  6 Boston,MA         0.505    0.465     0.545
    ##  7 Buffalo,NY        0.612    0.569     0.654
    ##  8 Charlotte,NC      0.300    0.266     0.336
    ##  9 Chicago,IL        0.736    0.724     0.747
    ## 10 Cincinnati,OH     0.445    0.408     0.483
    ## # … with 41 more rows
…
